^C:\USERS\GALIS\DESKTOP\SZAMGRAF_ANGOL\12\NEW\01_MIDDLE\01_MIDDLE\01_MIDDLE\DEBUG\GCAMERA.OBJ|C:\USERS\GALIS\DESKTOP\SZAMGRAF_ANGOL\12\NEW\01_MIDDLE\01_MIDDLE\01_MIDDLE\DEBUG\GSHADERPROGRAM.OBJ|C:\USERS\GALIS\DESKTOP\SZAMGRAF_ANGOL\12\NEW\01_MIDDLE\01_MIDDLE\01_MIDDLE\DEBUG\GVERTEXBUFFER.OBJ|C:\USERS\GALIS\DESKTOP\SZAMGRAF_ANGOL\12\NEW\01_MIDDLE\01_MIDDLE\01_MIDDLE\DEBUG\MAIN.OBJ|C:\USERS\GALIS\DESKTOP\SZAMGRAF_ANGOL\12\NEW\01_MIDDLE\01_MIDDLE\01_MIDDLE\DEBUG\MESH_OGL3.OBJ|C:\USERS\GALIS\DESKTOP\SZAMGRAF_ANGOL\12\NEW\01_MIDDLE\01_MIDDLE\01_MIDDLE\DEBUG\MYAPP.OBJ|C:\USERS\GALIS\DESKTOP\SZAMGRAF_ANGOL\12\NEW\01_MIDDLE\01_MIDDLE\01_MIDDLE\DEBUG\OBJPARSER_OGL3.OBJ
C:\USERS\GALIS\DESKTOP\SZAMGRAF_ANGOL\12\NEW\01_MIDDLE\01_MIDDLE\DEBUG\01_MIDDLE.EXE
C:\USERS\GALIS\DESKTOP\SZAMGRAF_ANGOL\12\NEW\01_MIDDLE\01_MIDDLE\DEBUG\01_MIDDLE.ILK
C:\USERS\GALIS\DESKTOP\SZAMGRAF_ANGOL\12\NEW\01_MIDDLE\01_MIDDLE\DEBUG\01_MIDDLE.PDB
